{"name":"Title of your scenario","id":"get-without-authentificathion;title-of-your-scenario","testSteps":[{"number":1,"description":"Given I want to get list of users from \"https://reqres.in/\"","duration":179,"startTime":"2021-07-09T07:59:00.830-05:00[America/Bogota]","result":"SUCCESS","precondition":false,"level":0},{"number":2,"description":"When he required users in the endpoint \"api/users?page\u003d\" and page \"2\"","duration":7792,"startTime":"2021-07-09T07:59:01.018-05:00[America/Bogota]","result":"SUCCESS","precondition":false,"level":0,"children":[{"number":3,"description":"Duvan get users","duration":6845,"startTime":"2021-07-09T07:59:01.960-05:00[America/Bogota]","result":"SUCCESS","precondition":false,"level":1,"children":[{"number":4,"description":"Duvan executes a GET on the resource api/users?page\u003d2","duration":6605,"startTime":"2021-07-09T07:59:02.169-05:00[America/Bogota]","result":"SUCCESS","precondition":false,"level":2,"children":[{"number":5,"description":"GET https://reqres.in/api/users?page\u003d2\r","duration":1,"startTime":"2021-07-09T07:59:08.773-05:00[America/Bogota]","result":"SUCCESS","restQuery":{"method":"GET","path":"https://reqres.in/api/users?page\u003d2\r","content":"\r","contentType":"application/json","requestHeaders":"Accept\u003d*/*\r\n\t\t\t\tContent-Type\u003dapplication/json; charset\u003dUTF-8\r","requestCookies":"\r","responseHeaders":"Date: Fri, 09 Jul 2021 12:59:07 GMT\r\nContent-Type: application/json; charset\u003dutf-8\r\nTransfer-Encoding: chunked\r\nConnection: keep-alive\r\nX-Powered-By: Express\r\nAccess-Control-Allow-Origin: *\r\nEtag: W/\"406-ut0vzoCuidvyMf8arZpMpJ6ZRDw\"\r\nVia: 1.1 vegur\r\nCache-Control: max-age\u003d14400\r\nCF-Cache-Status: HIT\r\nAge: 5745\r\nExpect-CT: max-age\u003d604800, report-uri\u003d\"https://report-uri.cloudflare.com/cdn-cgi/beacon/expect-ct\"\r\nReport-To: {\"endpoints\":[{\"url\":\"https:\\/\\/a.nel.cloudflare.com\\/report\\/v2?s\u003d9fp%2F1JZsW0sgK8bDv1tfTlHFBb3AtArSqICiFkWyT1CDOrk0O%2F25j%2BG3pz4NYE%2F5didaIAcTrl63EhujiK5q4uCiISa5ohvO4TcFWqRGfHlNYbhxOeHK\"}],\"group\":\"cf-nel\",\"max_age\":604800}\r\nNEL: {\"report_to\":\"cf-nel\",\"max_age\":604800}\r\nVary: Accept-Encoding\r\nServer: cloudflare\r\nCF-RAY: 66c1ba4e6df73eeb-BOG\r\nContent-Encoding: gzip\r\nalt-svc: h3-27\u003d\":443\"; ma\u003d86400, h3-28\u003d\":443\"; ma\u003d86400, h3-29\u003d\":443\"; ma\u003d86400, h3\u003d\":443\"; ma\u003d86400\r","responseCookies":"\r","responseBody":"{\n    \"page\": 2,\n    \"per_page\": 6,\n    \"total\": 12,\n    \"total_pages\": 2,\n    \"data\": [\n        {\n            \"id\": 7,\n            \"email\": \"michael.lawson@reqres.in\",\n            \"first_name\": \"Michael\",\n            \"last_name\": \"Lawson\",\n            \"avatar\": \"https://reqres.in/img/faces/7-image.jpg\"\n        },\n        {\n            \"id\": 8,\n            \"email\": \"lindsay.ferguson@reqres.in\",\n            \"first_name\": \"Lindsay\",\n            \"last_name\": \"Ferguson\",\n            \"avatar\": \"https://reqres.in/img/faces/8-image.jpg\"\n        },\n        {\n            \"id\": 9,\n            \"email\": \"tobias.funke@reqres.in\",\n            \"first_name\": \"Tobias\",\n            \"last_name\": \"Funke\",\n            \"avatar\": \"https://reqres.in/img/faces/9-image.jpg\"\n        },\n        {\n            \"id\": 10,\n            \"email\": \"byron.fields@reqres.in\",\n            \"first_name\": \"Byron\",\n            \"last_name\": \"Fields\",\n            \"avatar\": \"https://reqres.in/img/faces/10-image.jpg\"\n        },\n        {\n            \"id\": 11,\n            \"email\": \"george.edwards@reqres.in\",\n            \"first_name\": \"George\",\n            \"last_name\": \"Edwards\",\n            \"avatar\": \"https://reqres.in/img/faces/11-image.jpg\"\n        },\n        {\n            \"id\": 12,\n            \"email\": \"rachel.howell@reqres.in\",\n            \"first_name\": \"Rachel\",\n            \"last_name\": \"Howell\",\n            \"avatar\": \"https://reqres.in/img/faces/12-image.jpg\"\n        }\n    ],\n    \"support\": {\n        \"url\": \"https://reqres.in/#support-heading\",\n        \"text\": \"To keep ReqRes free, contributions towards server costs are appreciated!\"\n    }\n}","statusCode":200},"precondition":false,"level":3}]}]}]},{"number":6,"description":"Then I validate that the code 200 and are of page \"2\"","duration":295,"startTime":"2021-07-09T07:59:08.813-05:00[America/Bogota]","result":"SUCCESS","precondition":false,"level":0,"children":[{"number":7,"description":"Then code of response  should be (200)","duration":7,"startTime":"2021-07-09T07:59:09.067-05:00[America/Bogota]","result":"SUCCESS","precondition":false,"level":1},{"number":8,"description":"Then validate text post should be (true)","duration":13,"startTime":"2021-07-09T07:59:09.092-05:00[America/Bogota]","result":"SUCCESS","precondition":false,"level":1}]}],"userStory":{"id":"get-without-authentificathion","storyName":"Get without authentificathion","path":"file:///C:/Users/jonathan.castro/OneDrive%20-%20SOPHOS%20SOLUTIONS%20SAS/Escritorio/Proyecto%20Tienda%20De%20Mascotas/Automatización/SemilleroScreenPlayPractica/ProyectoTiendaMascotas/lib/src/test/resources/com/sophossolutions/features/get_without_auth.feature","narrative":"  I want as a tester\n  automate get api test\n  to validate the result is successful","type":"feature"},"featureTag":{"name":"Features/Get without authentificathion","type":"feature","displayName":"Features/Get without authentificathion"},"title":"Title of your scenario","startTime":"2021-07-09T07:59:00.355-05:00[America/Bogota]","duration":8758,"projectKey":"","isManualTestingUpToDate":false,"manual":false,"testSource":"Cucumber","actors":[{"name":"Duvan","can":["browse the web","call an API at https://reqres.in/"]}],"result":"SUCCESS"}