{"name":"Geth with authentificathion","id":"get-with-authentificathion;geth-with-authentificathion","testSteps":[{"number":1,"description":"Given \"GrupoUno\" wants to get users from \"https://gorest.co.in/\"","duration":133,"startTime":"2021-07-08T16:41:50.698-05:00[America/Bogota]","result":"SUCCESS","precondition":false,"level":0},{"number":2,"description":"When he required users in the endpoint \"public-api/users/\" and with status \"Inactive\"","duration":6332,"startTime":"2021-07-08T16:41:50.837-05:00[America/Bogota]","result":"SUCCESS","precondition":false,"level":0,"children":[{"number":3,"description":"Grupouno get with auth","duration":5878,"startTime":"2021-07-08T16:41:51.287-05:00[America/Bogota]","result":"SUCCESS","precondition":false,"level":1,"children":[{"number":4,"description":"GrupoUno executes a GET on the resource public-api/users/","duration":5747,"startTime":"2021-07-08T16:41:51.384-05:00[America/Bogota]","result":"SUCCESS","precondition":false,"level":2,"children":[{"number":5,"description":"GET https://gorest.co.in/public-api/users/?status\u003dInactive\r","duration":0,"startTime":"2021-07-08T16:41:57.131-05:00[America/Bogota]","result":"SUCCESS","restQuery":{"method":"GET","path":"https://gorest.co.in/public-api/users/?status\u003dInactive\r","content":"\r","contentType":"null","requestHeaders":"Accept\u003d*/*\r","requestCookies":"\r","responseHeaders":"Server: nginx\r\nDate: Thu, 08 Jul 2021 21:41:56 GMT\r\nContent-Type: application/json; charset\u003dutf-8\r\nTransfer-Encoding: chunked\r\nConnection: keep-alive\r\nVary: Accept-Encoding\r\nX-Frame-Options: SAMEORIGIN\r\nX-XSS-Protection: 1; mode\u003dblock\r\nX-Content-Type-Options: nosniff\r\nX-Download-Options: noopen\r\nX-Permitted-Cross-Domain-Policies: none\r\nReferrer-Policy: strict-origin-when-cross-origin\r\nETag: W/\"d555300d09689b1a326c1c1c29440fce\"\r\nCache-Control: max-age\u003d0, private, must-revalidate\r\nX-Request-Id: b6bb3e0b-d1a1-4cbe-a44f-a3d647b903d6\r\nX-Runtime: 0.027306\r\nStrict-Transport-Security: max-age\u003d31536000; includeSubDomains\r\nVary: Origin\r\nX-Frame-Options: sameorigin\r\nExpect-CT: enforce; max-age\u003d3600\r\nContent-Encoding: gzip\r","responseCookies":"\r","responseBody":"{\n    \"code\": 200,\n    \"meta\": {\n        \"pagination\": {\n            \"total\": 697,\n            \"pages\": 35,\n            \"page\": 1,\n            \"limit\": 20\n        }\n    },\n    \"data\": [\n        {\n            \"id\": 31,\n            \"name\": \"Eshita Pothuvaal\",\n            \"email\": \"pothuvaal_eshita@kerluke.net\",\n            \"gender\": \"Female\",\n            \"status\": \"Inactive\",\n            \"created_at\": \"2021-07-08T03:50:04.515+05:30\",\n            \"updated_at\": \"2021-07-08T03:50:04.515+05:30\"\n        },\n        {\n            \"id\": 32,\n            \"name\": \"eshwar\",\n            \"email\": \"bandopadhyay_md_devesh@rosenbaum-glover.net\",\n            \"gender\": \"Female\",\n            \"status\": \"Inactive\",\n            \"created_at\": \"2021-07-08T03:50:04.543+05:30\",\n            \"updated_at\": \"2021-07-08T19:55:05.912+05:30\"\n        },\n        {\n            \"id\": 38,\n            \"name\": \"Devajyoti Namboothiri\",\n            \"email\": \"namboothiri_devajyoti@kuhlman.io\",\n            \"gender\": \"Male\",\n            \"status\": \"Inactive\",\n            \"created_at\": \"2021-07-08T03:50:04.624+05:30\",\n            \"updated_at\": \"2021-07-08T03:50:04.624+05:30\"\n        },\n        {\n            \"id\": 39,\n            \"name\": \"Bhadran Varma\",\n            \"email\": \"varma_bhadran@murphy-boyle.info\",\n            \"gender\": \"Male\",\n            \"status\": \"Inactive\",\n            \"created_at\": \"2021-07-08T03:50:04.664+05:30\",\n            \"updated_at\": \"2021-07-08T03:50:04.664+05:30\"\n        },\n        {\n            \"id\": 44,\n            \"name\": \"Aadi Bharadwaj\",\n            \"email\": \"aadi_bharadwaj@marks-feeney.biz\",\n            \"gender\": \"Male\",\n            \"status\": \"Inactive\",\n            \"created_at\": \"2021-07-08T03:50:04.813+05:30\",\n            \"updated_at\": \"2021-07-08T03:50:04.813+05:30\"\n        },\n        {\n            \"id\": 45,\n            \"name\": \"Dwaipayan Mishra\",\n            \"email\": \"dwaipayan_mishra@bayer.info\",\n            \"gender\": \"Female\",\n            \"status\": \"Inactive\",\n            \"created_at\": \"2021-07-08T03:50:04.852+05:30\",\n            \"updated_at\": \"2021-07-08T03:50:04.852+05:30\"\n        },\n        {\n            \"id\": 48,\n            \"name\": \"Anurag Arora\",\n            \"email\": \"arora_anurag@hirthe.name\",\n            \"gender\": \"Female\",\n            \"status\": \"Inactive\",\n            \"created_at\": \"2021-07-08T03:50:04.910+05:30\",\n            \"updated_at\": \"2021-07-08T03:50:04.910+05:30\"\n        },\n        {\n            \"id\": 49,\n            \"name\": \"Acaryatanaya Nayar\",\n            \"email\": \"nayar_acaryatanaya@kessler-beahan.info\",\n            \"gender\": \"Female\",\n            \"status\": \"Inactive\",\n            \"created_at\": \"2021-07-08T03:50:04.925+05:30\",\n            \"updated_at\": \"2021-07-08T03:50:04.925+05:30\"\n        },\n        {\n            \"id\": 51,\n            \"name\": \"Msgr. Dhanpati Mehra\",\n            \"email\": \"dhanpati_mehra_msgr@gutkowski-schumm.co\",\n            \"gender\": \"Male\",\n            \"status\": \"Inactive\",\n            \"created_at\": \"2021-07-08T03:50:04.964+05:30\",\n            \"updated_at\": \"2021-07-08T03:50:04.964+05:30\"\n        },\n        {\n            \"id\": 53,\n            \"name\": \"Balgopal Nair\",\n            \"email\": \"balgopal_nair@langworth-anderson.com\",\n            \"gender\": \"Male\",\n            \"status\": \"Inactive\",\n            \"created_at\": \"2021-07-08T03:50:05.011+05:30\",\n            \"updated_at\": \"2021-07-08T03:50:05.011+05:30\"\n        },\n        {\n            \"id\": 54,\n            \"name\": \"Triloki Dubashi\",\n            \"email\": \"triloki_dubashi@dickinson.com\",\n            \"gender\": \"Female\",\n            \"status\": \"Inactive\",\n            \"created_at\": \"2021-07-08T03:50:05.032+05:30\",\n            \"updated_at\": \"2021-07-08T03:50:05.032+05:30\"\n        },\n        {\n            \"id\": 55,\n            \"name\": \"Jitender Dubashi\",\n            \"email\": \"dubashi_jitender@upton.io\",\n            \"gender\": \"Male\",\n            \"status\": \"Inactive\",\n            \"created_at\": \"2021-07-08T03:50:05.052+05:30\",\n            \"updated_at\": \"2021-07-08T03:50:05.052+05:30\"\n        },\n        {\n            \"id\": 57,\n            \"name\": \"Ravi Gandhi\",\n            \"email\": \"ravi_gandhi@welch.co\",\n            \"gender\": \"Female\",\n            \"status\": \"Inactive\",\n            \"created_at\": \"2021-07-08T03:50:05.086+05:30\",\n            \"updated_at\": \"2021-07-08T03:50:05.086+05:30\"\n        },\n        {\n            \"id\": 60,\n            \"name\": \"Gov. Aanandaswarup Kaur\",\n            \"email\": \"kaur_gov_aanandaswarup@windler-christiansen.io\",\n            \"gender\": \"Female\",\n            \"status\": \"Inactive\",\n            \"created_at\": \"2021-07-08T03:50:05.171+05:30\",\n            \"updated_at\": \"2021-07-08T03:50:05.171+05:30\"\n        },\n        {\n            \"id\": 61,\n            \"name\": \"Bhadrak Pilla\",\n            \"email\": \"bhadrak_pilla@treutel.net\",\n            \"gender\": \"Female\",\n            \"status\": \"Inactive\",\n            \"created_at\": \"2021-07-08T03:50:05.176+05:30\",\n            \"updated_at\": \"2021-07-08T03:50:05.176+05:30\"\n        },\n        {\n            \"id\": 63,\n            \"name\": \"Sarisha Arora CPA\",\n            \"email\": \"sarisha_arora_cpa@zulauf.co\",\n            \"gender\": \"Male\",\n            \"status\": \"Inactive\",\n            \"created_at\": \"2021-07-08T03:50:05.211+05:30\",\n            \"updated_at\": \"2021-07-08T03:50:05.211+05:30\"\n        },\n        {\n            \"id\": 64,\n            \"name\": \"Dipendra Abbott\",\n            \"email\": \"dipendra_abbott@hilll.io\",\n            \"gender\": \"Male\",\n            \"status\": \"Inactive\",\n            \"created_at\": \"2021-07-08T03:50:05.242+05:30\",\n            \"updated_at\": \"2021-07-08T03:50:05.242+05:30\"\n        },\n        {\n            \"id\": 67,\n            \"name\": \"Divjot Chopra\",\n            \"email\": \"chopra_divjot@spencer-kertzmann.net\",\n            \"gender\": \"Male\",\n            \"status\": \"Inactive\",\n            \"created_at\": \"2021-07-08T03:50:05.275+05:30\",\n            \"updated_at\": \"2021-07-08T03:50:05.275+05:30\"\n        },\n        {\n            \"id\": 78,\n            \"name\": \"Mr. Shiv Shukla\",\n            \"email\": \"shukla_mr_shiv@botsford.com\",\n            \"gender\": \"Male\",\n            \"status\": \"Inactive\",\n            \"created_at\": \"2021-07-08T03:50:05.436+05:30\",\n            \"updated_at\": \"2021-07-08T03:50:05.436+05:30\"\n        },\n        {\n            \"id\": 80,\n            \"name\": \"Gemine Panicker\",\n            \"email\": \"gemine_panicker@padberg.co\",\n            \"gender\": \"Male\",\n            \"status\": \"Inactive\",\n            \"created_at\": \"2021-07-08T03:50:05.472+05:30\",\n            \"updated_at\": \"2021-07-08T03:50:05.472+05:30\"\n        }\n    ]\n}","statusCode":200},"precondition":false,"level":3}]}]}]},{"number":6,"description":"Then I validate that the users have \"Inactive\" status","duration":161,"startTime":"2021-07-08T16:41:57.170-05:00[America/Bogota]","result":"SUCCESS","precondition":false,"level":0,"children":[{"number":7,"description":"Then validate get with auth should be (true)","duration":11,"startTime":"2021-07-08T16:41:57.317-05:00[America/Bogota]","result":"SUCCESS","precondition":false,"level":1}]}],"userStory":{"id":"get-with-authentificathion","storyName":"Get with authentificathion","path":"file:///C:/Users/jonathan.castro/OneDrive%20-%20SOPHOS%20SOLUTIONS%20SAS/Escritorio/Proyecto%20Tienda%20De%20Mascotas/Automatización/SemilleroScreenPlayPractica/ProyectoTiendaMascotas/lib/src/test/resources/com/sophossolutions/features/get_with_auth.feature","narrative":"  I want as a tester\n  automate get api test\n  to validate the result is successful","type":"feature"},"featureTag":{"name":"Features/Get with authentificathion","type":"feature","displayName":"Features/Get with authentificathion"},"title":"Geth with authentificathion","startTime":"2021-07-08T16:41:50.405-05:00[America/Bogota]","duration":6929,"projectKey":"","isManualTestingUpToDate":false,"manual":false,"testSource":"Cucumber","actors":[{"name":"GrupoUno","can":["browse the web","call an API at https://gorest.co.in/"]}],"result":"SUCCESS"}