{"name":"Obtener con autenticaci�n","id":"obtener-con-autenticaci�n;obtener-con-autenticaci�n","testSteps":[{"number":1,"description":"Given Que \"Grupo 4\" quiere realizar la consulta en la api \"https://gorest.co.in/\"","duration":69,"startTime":"2021-07-09T22:44:22.620-05:00[America/Bogota]","result":"SUCCESS","precondition":false,"level":0},{"number":2,"description":"When Solicita el endpoint \"public-api/users\" y el genero \"Female\"","duration":5577,"startTime":"2021-07-09T22:44:22.689-05:00[America/Bogota]","result":"SUCCESS","precondition":false,"level":0,"children":[{"number":3,"description":"Grupo 4 get comments with auth","duration":5252,"startTime":"2021-07-09T22:44:23.010-05:00[America/Bogota]","result":"SUCCESS","precondition":false,"level":1,"children":[{"number":4,"description":"Grupo 4 executes a GET on the resource public-api/users","duration":5140,"startTime":"2021-07-09T22:44:23.090-05:00[America/Bogota]","result":"SUCCESS","precondition":false,"level":2,"children":[{"number":5,"description":"GET https://gorest.co.in/public-api/users?gender\u003dFemale\r","duration":0,"startTime":"2021-07-09T22:44:28.230-05:00[America/Bogota]","result":"SUCCESS","restQuery":{"method":"GET","path":"https://gorest.co.in/public-api/users?gender\u003dFemale\r","content":"\r","contentType":"null","requestHeaders":"Accept\u003d*/*\r","requestCookies":"\r","responseHeaders":"Server: nginx\r\nDate: Sat, 10 Jul 2021 03:43:47 GMT\r\nContent-Type: application/json; charset\u003dutf-8\r\nTransfer-Encoding: chunked\r\nConnection: keep-alive\r\nVary: Accept-Encoding\r\nX-Frame-Options: SAMEORIGIN\r\nX-XSS-Protection: 1; mode\u003dblock\r\nX-Content-Type-Options: nosniff\r\nX-Download-Options: noopen\r\nX-Permitted-Cross-Domain-Policies: none\r\nReferrer-Policy: strict-origin-when-cross-origin\r\nETag: W/\"507bf44486d720f825a7efc56c903077\"\r\nCache-Control: max-age\u003d0, private, must-revalidate\r\nX-Request-Id: e2f048f2-8372-4df9-8e24-f0fad2c8c36d\r\nX-Runtime: 0.031831\r\nStrict-Transport-Security: max-age\u003d31536000; includeSubDomains\r\nVary: Origin\r\nX-Frame-Options: sameorigin\r\nExpect-CT: enforce; max-age\u003d3600\r\nContent-Encoding: gzip\r","responseCookies":"\r","responseBody":"{\n    \"code\": 200,\n    \"meta\": {\n        \"pagination\": {\n            \"total\": 678,\n            \"pages\": 34,\n            \"page\": 1,\n            \"limit\": 20\n        }\n    },\n    \"data\": [\n        {\n            \"id\": 5,\n            \"name\": \"Pushti Kapoor\",\n            \"email\": \"kapoor_pushti@heidenreich.co\",\n            \"gender\": \"Female\",\n            \"status\": \"Active\",\n            \"created_at\": \"2021-07-10T03:50:04.996+05:30\",\n            \"updated_at\": \"2021-07-10T03:50:04.996+05:30\"\n        },\n        {\n            \"id\": 9,\n            \"name\": \"Ekaling Verma DDS\",\n            \"email\": \"ekaling_verma_dds@schuppe-daugherty.info\",\n            \"gender\": \"Female\",\n            \"status\": \"Inactive\",\n            \"created_at\": \"2021-07-10T03:50:05.053+05:30\",\n            \"updated_at\": \"2021-07-10T03:50:05.053+05:30\"\n        },\n        {\n            \"id\": 10,\n            \"name\": \"Somu Pandey\",\n            \"email\": \"nambeesan_gov_lila@test.com\",\n            \"gender\": \"Female\",\n            \"status\": \"Active\",\n            \"created_at\": \"2021-07-10T03:50:05.078+05:30\",\n            \"updated_at\": \"2021-07-10T08:33:01.822+05:30\"\n        },\n        {\n            \"id\": 11,\n            \"name\": \"Bilva Guha II\",\n            \"email\": \"ii_bilva_guha@rosenbaum-mccullough.io\",\n            \"gender\": \"Female\",\n            \"status\": \"Inactive\",\n            \"created_at\": \"2021-07-10T03:50:05.088+05:30\",\n            \"updated_at\": \"2021-07-10T03:50:05.088+05:30\"\n        },\n        {\n            \"id\": 16,\n            \"name\": \"Veda Khatri\",\n            \"email\": \"veda_khatri@metz-rohan.biz\",\n            \"gender\": \"Female\",\n            \"status\": \"Inactive\",\n            \"created_at\": \"2021-07-10T03:50:05.156+05:30\",\n            \"updated_at\": \"2021-07-10T03:50:05.156+05:30\"\n        },\n        {\n            \"id\": 23,\n            \"name\": \"Chatura Bhattathiri\",\n            \"email\": \"chatura_bhattathiri@hamill.info\",\n            \"gender\": \"Female\",\n            \"status\": \"Inactive\",\n            \"created_at\": \"2021-07-10T03:50:05.268+05:30\",\n            \"updated_at\": \"2021-07-10T03:50:05.268+05:30\"\n        },\n        {\n            \"id\": 24,\n            \"name\": \"Trilochan Dwivedi Sr.\",\n            \"email\": \"dwivedi_trilochan_sr@sipes-zulauf.com\",\n            \"gender\": \"Female\",\n            \"status\": \"Active\",\n            \"created_at\": \"2021-07-10T03:50:05.283+05:30\",\n            \"updated_at\": \"2021-07-10T03:50:05.283+05:30\"\n        },\n        {\n            \"id\": 27,\n            \"name\": \"Dr. Kashyap Mukhopadhyay\",\n            \"email\": \"dr_mukhopadhyay_kashyap@raynor.info\",\n            \"gender\": \"Female\",\n            \"status\": \"Inactive\",\n            \"created_at\": \"2021-07-10T03:50:05.329+05:30\",\n            \"updated_at\": \"2021-07-10T03:50:05.329+05:30\"\n        },\n        {\n            \"id\": 28,\n            \"name\": \"Raj Nehru\",\n            \"email\": \"raj_nehru@jast.com\",\n            \"gender\": \"Female\",\n            \"status\": \"Active\",\n            \"created_at\": \"2021-07-10T03:50:05.336+05:30\",\n            \"updated_at\": \"2021-07-10T03:50:05.336+05:30\"\n        },\n        {\n            \"id\": 32,\n            \"name\": \"Sen. Gobinda Menon\",\n            \"email\": \"menon_gobinda_sen@lueilwitz.co\",\n            \"gender\": \"Female\",\n            \"status\": \"Active\",\n            \"created_at\": \"2021-07-10T03:50:05.400+05:30\",\n            \"updated_at\": \"2021-07-10T03:50:05.400+05:30\"\n        },\n        {\n            \"id\": 35,\n            \"name\": \"Bhargava Iyer\",\n            \"email\": \"iyer_bhargava@kuphal.biz\",\n            \"gender\": \"Female\",\n            \"status\": \"Inactive\",\n            \"created_at\": \"2021-07-10T03:50:05.458+05:30\",\n            \"updated_at\": \"2021-07-10T03:50:05.458+05:30\"\n        },\n        {\n            \"id\": 38,\n            \"name\": \"Fr. Poornima Ganaka\",\n            \"email\": \"ganaka_poornima_fr@schoen.co\",\n            \"gender\": \"Female\",\n            \"status\": \"Active\",\n            \"created_at\": \"2021-07-10T03:50:05.489+05:30\",\n            \"updated_at\": \"2021-07-10T03:50:05.489+05:30\"\n        },\n        {\n            \"id\": 41,\n            \"name\": \"Dr. Ekaling Jha\",\n            \"email\": \"jha_dr_ekaling@abshire.co\",\n            \"gender\": \"Female\",\n            \"status\": \"Active\",\n            \"created_at\": \"2021-07-10T03:50:05.537+05:30\",\n            \"updated_at\": \"2021-07-10T03:50:05.537+05:30\"\n        },\n        {\n            \"id\": 42,\n            \"name\": \"Vijay Devar\",\n            \"email\": \"vijay_devar@sporer.name\",\n            \"gender\": \"Female\",\n            \"status\": \"Inactive\",\n            \"created_at\": \"2021-07-10T03:50:05.554+05:30\",\n            \"updated_at\": \"2021-07-10T03:50:05.554+05:30\"\n        },\n        {\n            \"id\": 43,\n            \"name\": \"Anurag Banerjee DO\",\n            \"email\": \"anurag_do_banerjee@hilll-fritsch.io\",\n            \"gender\": \"Female\",\n            \"status\": \"Inactive\",\n            \"created_at\": \"2021-07-10T03:50:05.575+05:30\",\n            \"updated_at\": \"2021-07-10T03:50:05.575+05:30\"\n        },\n        {\n            \"id\": 44,\n            \"name\": \"Akshita Pandey\",\n            \"email\": \"akshita_pandey@swift.name\",\n            \"gender\": \"Female\",\n            \"status\": \"Inactive\",\n            \"created_at\": \"2021-07-10T03:50:05.604+05:30\",\n            \"updated_at\": \"2021-07-10T03:50:05.604+05:30\"\n        },\n        {\n            \"id\": 45,\n            \"name\": \"Ranjeet Guneta\",\n            \"email\": \"ranjeet_guneta@legros.name\",\n            \"gender\": \"Female\",\n            \"status\": \"Active\",\n            \"created_at\": \"2021-07-10T03:50:05.620+05:30\",\n            \"updated_at\": \"2021-07-10T03:50:05.620+05:30\"\n        },\n        {\n            \"id\": 46,\n            \"name\": \"Inder Abbott DC\",\n            \"email\": \"abbott_inder_dc@mccullough-willms.io\",\n            \"gender\": \"Female\",\n            \"status\": \"Active\",\n            \"created_at\": \"2021-07-10T03:50:05.650+05:30\",\n            \"updated_at\": \"2021-07-10T03:50:05.650+05:30\"\n        },\n        {\n            \"id\": 47,\n            \"name\": \"Gautami Bhat\",\n            \"email\": \"gautami_bhat@aufderhar.org\",\n            \"gender\": \"Female\",\n            \"status\": \"Active\",\n            \"created_at\": \"2021-07-10T03:50:05.656+05:30\",\n            \"updated_at\": \"2021-07-10T03:50:05.656+05:30\"\n        },\n        {\n            \"id\": 48,\n            \"name\": \"Swarnalata Pothuvaal II\",\n            \"email\": \"ii_pothuvaal_swarnalata@bernhard.name\",\n            \"gender\": \"Female\",\n            \"status\": \"Inactive\",\n            \"created_at\": \"2021-07-10T03:50:05.672+05:30\",\n            \"updated_at\": \"2021-07-10T03:50:05.672+05:30\"\n        }\n    ]\n}","statusCode":200},"precondition":false,"level":3}]}]}]},{"number":6,"description":"Then Valida que la respuesta tenga status 200","duration":127,"startTime":"2021-07-09T22:44:28.266-05:00[America/Bogota]","result":"SUCCESS","precondition":false,"level":0,"children":[{"number":7,"description":"Then validate response should be (true)","duration":0,"startTime":"2021-07-09T22:44:28.393-05:00[America/Bogota]","result":"SUCCESS","precondition":false,"level":1}]}],"userStory":{"id":"obtener-con-autenticaci�n","storyName":"Obtener con autenticaci�n","path":"file:///C:/Users/valentina.correa/Documents/SemilleroScreenPlayPractica/JPetStore/lib/src/test/resources/features/09_get_with_auth.feature","narrative":"  Quiero automatizar una API GET para validar el resultado exitoso","type":"feature"},"featureTag":{"name":"Features/Obtener con autenticaci�n","type":"feature","displayName":"Features/Obtener con autenticaci�n"},"title":"Obtener con autenticaci�n","tags":[{"name":"Obtener con autenticaci�n","type":"feature","displayName":"Obtener con autenticaci�n"}],"startTime":"2021-07-09T22:44:22.258-05:00[America/Bogota]","duration":6135,"projectKey":"","isManualTestingUpToDate":false,"manual":false,"testSource":"Cucumber","actors":[{"name":"Grupo 4","can":["browse the web","call an API at https://gorest.co.in/"]}],"result":"SUCCESS"}