{"name":"Title of your scenario","id":"post-with-authentification;title-of-your-scenario","testSteps":[{"number":1,"description":"Given \"Angel Vivas\" sets an url \"https://gorest.co.in/\"","duration":93,"startTime":"2021-07-02T10:48:14.311-05:00[America/Bogota]","result":"SUCCESS","precondition":false,"level":0},{"number":2,"description":"When he requests to the endpoint \"public-api/users/\" and id \"37\"","duration":10425,"startTime":"2021-07-02T10:48:14.411-05:00[America/Bogota]","result":"SUCCESS","precondition":false,"level":0,"children":[{"number":3,"description":"Angel vivas get with","duration":9858,"startTime":"2021-07-02T10:48:14.920-05:00[America/Bogota]","result":"SUCCESS","precondition":false,"level":1,"children":[{"number":4,"description":"Angel Vivas executes a GET on the resource public-api/users/37","duration":7336,"startTime":"2021-07-02T10:48:15.047-05:00[America/Bogota]","result":"SUCCESS","precondition":false,"level":2,"children":[{"number":5,"description":"GET https://gorest.co.in/public-api/users/37\r","duration":1,"startTime":"2021-07-02T10:48:22.382-05:00[America/Bogota]","result":"SUCCESS","restQuery":{"method":"GET","path":"https://gorest.co.in/public-api/users/37\r","content":"\r","contentType":"null","requestHeaders":"Accept\u003d*/*\r","requestCookies":"\r","responseHeaders":"Server: nginx\r\nDate: Fri, 02 Jul 2021 15:48:06 GMT\r\nContent-Type: application/json; charset\u003dutf-8\r\nTransfer-Encoding: chunked\r\nConnection: keep-alive\r\nVary: Accept-Encoding\r\nX-Frame-Options: SAMEORIGIN\r\nX-XSS-Protection: 1; mode\u003dblock\r\nX-Content-Type-Options: nosniff\r\nX-Download-Options: noopen\r\nX-Permitted-Cross-Domain-Policies: none\r\nReferrer-Policy: strict-origin-when-cross-origin\r\nETag: W/\"554fe0c7c7bf51729c01370c1790d04d\"\r\nCache-Control: max-age\u003d0, private, must-revalidate\r\nX-Request-Id: 8fa00434-beb8-4d3c-9793-a6dcae047a9f\r\nX-Runtime: 0.024891\r\nStrict-Transport-Security: max-age\u003d31536000; includeSubDomains\r\nVary: Origin\r\nX-Frame-Options: sameorigin\r\nExpect-CT: enforce; max-age\u003d3600\r\nContent-Encoding: gzip\r","responseCookies":"\r","responseBody":"{\n    \"code\": 200,\n    \"meta\": null,\n    \"data\": {\n        \"id\": 37,\n        \"name\": \"Ms. Ayushmati Kapoor\",\n        \"email\": \"ms_ayushmati_kapoor@turcotte.name\",\n        \"gender\": \"Female\",\n        \"status\": \"Active\",\n        \"created_at\": \"2021-07-02T03:50:03.933+05:30\",\n        \"updated_at\": \"2021-07-02T03:50:03.933+05:30\"\n    }\n}","statusCode":200},"precondition":false,"level":3}]},{"number":6,"description":"Angel Vivas executes a GET on the resource public-api/users/","duration":2351,"startTime":"2021-07-02T10:48:22.426-05:00[America/Bogota]","result":"SUCCESS","precondition":false,"level":2,"children":[{"number":7,"description":"GET https://gorest.co.in/public-api/users/?PARAMETER_NAME\u003dPARAMETER_VALUE\r","duration":0,"startTime":"2021-07-02T10:48:24.777-05:00[America/Bogota]","result":"SUCCESS","restQuery":{"method":"GET","path":"https://gorest.co.in/public-api/users/?PARAMETER_NAME\u003dPARAMETER_VALUE\r","content":"\r","contentType":"null","requestHeaders":"Accept\u003d*/*\r","requestCookies":"\r","responseHeaders":"Server: nginx\r\nDate: Fri, 02 Jul 2021 15:48:09 GMT\r\nContent-Type: application/json; charset\u003dutf-8\r\nTransfer-Encoding: chunked\r\nConnection: keep-alive\r\nVary: Accept-Encoding\r\nX-Frame-Options: SAMEORIGIN\r\nX-XSS-Protection: 1; mode\u003dblock\r\nX-Content-Type-Options: nosniff\r\nX-Download-Options: noopen\r\nX-Permitted-Cross-Domain-Policies: none\r\nReferrer-Policy: strict-origin-when-cross-origin\r\nETag: W/\"4311740f540b6445dbfa5ea385e21962\"\r\nCache-Control: max-age\u003d0, private, must-revalidate\r\nX-Request-Id: 9979bcaa-c81f-43c3-ab39-10645443a7af\r\nX-Runtime: 0.026566\r\nStrict-Transport-Security: max-age\u003d31536000; includeSubDomains\r\nVary: Origin\r\nX-Frame-Options: sameorigin\r\nExpect-CT: enforce; max-age\u003d3600\r\nContent-Encoding: gzip\r","responseCookies":"\r","responseBody":"{\n    \"code\": 200,\n    \"meta\": {\n        \"pagination\": {\n            \"total\": 1609,\n            \"pages\": 81,\n            \"page\": 1,\n            \"limit\": 20\n        }\n    },\n    \"data\": [\n        {\n            \"id\": 25,\n            \"name\": \"Patrick3 Huy\",\n            \"email\": \"maheswar_reddy@hane.biz\",\n            \"gender\": \"Female\",\n            \"status\": \"Active\",\n            \"created_at\": \"2021-07-02T03:50:03.825+05:30\",\n            \"updated_at\": \"2021-07-02T20:33:40.711+05:30\"\n        },\n        {\n            \"id\": 28,\n            \"name\": \"Amritambu Shah\",\n            \"email\": \"amritambu_shah@kulas.info\",\n            \"gender\": \"Male\",\n            \"status\": \"Active\",\n            \"created_at\": \"2021-07-02T03:50:03.858+05:30\",\n            \"updated_at\": \"2021-07-02T20:17:00.922+05:30\"\n        },\n        {\n            \"id\": 30,\n            \"name\": \"Raj Chaturvedi\",\n            \"email\": \"raj_chaturvedi@klein-muller.co\",\n            \"gender\": \"Female\",\n            \"status\": \"Inactive\",\n            \"created_at\": \"2021-07-02T03:50:03.878+05:30\",\n            \"updated_at\": \"2021-07-02T03:50:03.878+05:30\"\n        },\n        {\n            \"id\": 31,\n            \"name\": \"BANK + BANK\",\n            \"email\": \"arora_bankimchandra@hirthe.io\",\n            \"gender\": \"Male\",\n            \"status\": \"Active\",\n            \"created_at\": \"2021-07-02T03:50:03.900+05:30\",\n            \"updated_at\": \"2021-07-02T17:21:59.443+05:30\"\n        },\n        {\n            \"id\": 33,\n            \"name\": \"Prof. Tara Reddy\",\n            \"email\": \"tara_reddy_prof@corwin.name\",\n            \"gender\": \"Male\",\n            \"status\": \"Active\",\n            \"created_at\": \"2021-07-02T03:50:03.911+05:30\",\n            \"updated_at\": \"2021-07-02T03:50:03.911+05:30\"\n        },\n        {\n            \"id\": 34,\n            \"name\": \"Bankim Varma\",\n            \"email\": \"varma_bankim@ratke.io\",\n            \"gender\": \"Female\",\n            \"status\": \"Active\",\n            \"created_at\": \"2021-07-02T03:50:03.919+05:30\",\n            \"updated_at\": \"2021-07-02T03:50:03.919+05:30\"\n        },\n        {\n            \"id\": 35,\n            \"name\": \"Kirti Pillai\",\n            \"email\": \"user@gmail.com\",\n            \"gender\": \"Male\",\n            \"status\": \"Inactive\",\n            \"created_at\": \"2021-07-02T03:50:03.922+05:30\",\n            \"updated_at\": \"2021-07-02T11:10:54.751+05:30\"\n        },\n        {\n            \"id\": 36,\n            \"name\": \"Ghanaanand Marar Esq.\",\n            \"email\": \"ghanaanand_esq_marar@baumbach.org\",\n            \"gender\": \"Male\",\n            \"status\": \"Inactive\",\n            \"created_at\": \"2021-07-02T03:50:03.930+05:30\",\n            \"updated_at\": \"2021-07-02T03:50:03.930+05:30\"\n        },\n        {\n            \"id\": 37,\n            \"name\": \"Ms. Ayushmati Kapoor\",\n            \"email\": \"ms_ayushmati_kapoor@turcotte.name\",\n            \"gender\": \"Female\",\n            \"status\": \"Active\",\n            \"created_at\": \"2021-07-02T03:50:03.933+05:30\",\n            \"updated_at\": \"2021-07-02T03:50:03.933+05:30\"\n        },\n        {\n            \"id\": 38,\n            \"name\": \"Bhudev Sethi Jr.\",\n            \"email\": \"jr_sethi_bhudev@goldner-dibbert.name\",\n            \"gender\": \"Male\",\n            \"status\": \"Active\",\n            \"created_at\": \"2021-07-02T03:50:03.943+05:30\",\n            \"updated_at\": \"2021-07-02T03:50:03.943+05:30\"\n        },\n        {\n            \"id\": 39,\n            \"name\": \"Rev. Ganaka Khan\",\n            \"email\": \"ganaka_rev_khan@durgan.info\",\n            \"gender\": \"Male\",\n            \"status\": \"Inactive\",\n            \"created_at\": \"2021-07-02T03:50:03.954+05:30\",\n            \"updated_at\": \"2021-07-02T03:50:03.954+05:30\"\n        },\n        {\n            \"id\": 40,\n            \"name\": \"Devin Bahringer\",\n            \"email\": \"Nat17@gmail.com\",\n            \"gender\": \"Female\",\n            \"status\": \"Active\",\n            \"created_at\": \"2021-07-02T03:50:03.959+05:30\",\n            \"updated_at\": \"2021-07-02T08:36:43.471+05:30\"\n        },\n        {\n            \"id\": 41,\n            \"name\": \"Raj Chopra\",\n            \"email\": \"chopra_raj@turcotte-rippin.org\",\n            \"gender\": \"Female\",\n            \"status\": \"Inactive\",\n            \"created_at\": \"2021-07-02T03:50:03.989+05:30\",\n            \"updated_at\": \"2021-07-02T03:50:03.989+05:30\"\n        },\n        {\n            \"id\": 42,\n            \"name\": \"Prof. Mangalya Bhattathiri\",\n            \"email\": \"mangalya_prof_bhattathiri@conroy.net\",\n            \"gender\": \"Male\",\n            \"status\": \"Active\",\n            \"created_at\": \"2021-07-02T03:50:04.004+05:30\",\n            \"updated_at\": \"2021-07-02T03:50:04.004+05:30\"\n        },\n        {\n            \"id\": 44,\n            \"name\": \"Baala Reddy\",\n            \"email\": \"reddy_baala@hintz.net\",\n            \"gender\": \"Male\",\n            \"status\": \"Active\",\n            \"created_at\": \"2021-07-02T03:50:04.043+05:30\",\n            \"updated_at\": \"2021-07-02T03:50:04.043+05:30\"\n        },\n        {\n            \"id\": 45,\n            \"name\": \"Sanjay Mehrotra\",\n            \"email\": \"sanjay_mehrotra@terry.io\",\n            \"gender\": \"Male\",\n            \"status\": \"Inactive\",\n            \"created_at\": \"2021-07-02T03:50:04.049+05:30\",\n            \"updated_at\": \"2021-07-02T03:50:04.049+05:30\"\n        },\n        {\n            \"id\": 46,\n            \"name\": \"Divaakar Gandhi\",\n            \"email\": \"gandhi_divaakar@cronin.biz\",\n            \"gender\": \"Male\",\n            \"status\": \"Active\",\n            \"created_at\": \"2021-07-02T03:50:04.069+05:30\",\n            \"updated_at\": \"2021-07-02T03:50:04.069+05:30\"\n        },\n        {\n            \"id\": 47,\n            \"name\": \"Chandraswaroopa Reddy\",\n            \"email\": \"reddy_chandraswaroopa@littel.com\",\n            \"gender\": \"Female\",\n            \"status\": \"Inactive\",\n            \"created_at\": \"2021-07-02T03:50:04.092+05:30\",\n            \"updated_at\": \"2021-07-02T03:50:04.092+05:30\"\n        },\n        {\n            \"id\": 48,\n            \"name\": \"Maheswar Acharya\",\n            \"email\": \"maheswar_acharya@mertz.com\",\n            \"gender\": \"Male\",\n            \"status\": \"Active\",\n            \"created_at\": \"2021-07-02T03:50:04.120+05:30\",\n            \"updated_at\": \"2021-07-02T03:50:04.120+05:30\"\n        },\n        {\n            \"id\": 49,\n            \"name\": \"Apsara Mukhopadhyay\",\n            \"email\": \"mukhopadhyay_apsara@bayer.name\",\n            \"gender\": \"Female\",\n            \"status\": \"Active\",\n            \"created_at\": \"2021-07-02T03:50:04.129+05:30\",\n            \"updated_at\": \"2021-07-02T03:50:04.129+05:30\"\n        }\n    ]\n}","statusCode":200},"precondition":false,"level":3}]}]}]},{"number":8,"description":"Then he should validate that the status code is 200","duration":10,"startTime":"2021-07-02T10:48:24.841-05:00[America/Bogota]","result":"SUCCESS","precondition":false,"level":0}],"userStory":{"id":"post-with-authentification","storyName":"Post With Authentification","path":"file:///C:/Users/angel.vivas/OneDrive%20-%20SOPHOS%20SOLUTIONS%20SAS/Documentos/Sophos/Semillero%20Automatización/MyProjects%20LOCAL/Gradle/SreenPlayBank/ScBank/lib/src/test/resources/features/post_with_auth.feature","narrative":"  I as an automatizer\n  I want to Automate a POST api\n  To validate the result is successful","type":"feature"},"featureTag":{"name":"Features/Post With Authentification","type":"feature","displayName":"Features/Post With Authentification"},"title":"Title of your scenario","tags":[{"name":"Post With Authentification","type":"feature","displayName":"Post With Authentification"}],"startTime":"2021-07-02T10:48:13.886-05:00[America/Bogota]","duration":10974,"projectKey":"","isManualTestingUpToDate":false,"manual":false,"testSource":"Cucumber","actors":[{"name":"Angel Vivas","can":["browse the web","call an API at https://gorest.co.in/"]}],"result":"SUCCESS"}