{"name":"Title of your scenario","id":"post-with-authentification;title-of-your-scenario","testSteps":[{"number":1,"description":"Given \"Jonathan\" sets an url \"https://gorest.co.in/\"","duration":108,"startTime":"2021-07-02T10:01:03.573-05:00[America/Bogota]","result":"SUCCESS","precondition":false,"level":0},{"number":2,"description":"When he request to the endpoint \"public-api/users\" and id \"5\"","duration":6737,"startTime":"2021-07-02T10:01:03.686-05:00[America/Bogota]","result":"SUCCESS","precondition":false,"level":0,"children":[{"number":3,"description":"Jonathan get with","duration":6313,"startTime":"2021-07-02T10:01:04.107-05:00[America/Bogota]","result":"SUCCESS","precondition":false,"level":1,"children":[{"number":4,"description":"Jonathan executes a GET on the resource public-api/users?page\u003d5","duration":6199,"startTime":"2021-07-02T10:01:04.218-05:00[America/Bogota]","result":"SUCCESS","precondition":false,"level":2,"children":[{"number":5,"description":"GET https://gorest.co.in/public-api/users?page\u003d5\r","duration":1,"startTime":"2021-07-02T10:01:10.416-05:00[America/Bogota]","result":"SUCCESS","restQuery":{"method":"GET","path":"https://gorest.co.in/public-api/users?page\u003d5\r","content":"\r","contentType":"null","requestHeaders":"Accept\u003d*/*\r","requestCookies":"\r","responseHeaders":"Server: nginx\r\nDate: Fri, 02 Jul 2021 15:01:09 GMT\r\nContent-Type: application/json; charset\u003dutf-8\r\nTransfer-Encoding: chunked\r\nConnection: keep-alive\r\nVary: Accept-Encoding\r\nX-Frame-Options: SAMEORIGIN\r\nX-XSS-Protection: 1; mode\u003dblock\r\nX-Content-Type-Options: nosniff\r\nX-Download-Options: noopen\r\nX-Permitted-Cross-Domain-Policies: none\r\nReferrer-Policy: strict-origin-when-cross-origin\r\nETag: W/\"615e83e25092db05c46837a9c32d37cd\"\r\nCache-Control: max-age\u003d0, private, must-revalidate\r\nX-Request-Id: 1685ae68-ddfb-4465-91a2-cb891a771ca0\r\nX-Runtime: 0.026777\r\nStrict-Transport-Security: max-age\u003d31536000; includeSubDomains\r\nVary: Origin\r\nX-Frame-Options: sameorigin\r\nExpect-CT: enforce; max-age\u003d3600\r\nContent-Encoding: gzip\r","responseCookies":"\r","responseBody":"{\n    \"code\": 200,\n    \"meta\": {\n        \"pagination\": {\n            \"total\": 1584,\n            \"pages\": 80,\n            \"page\": 5,\n            \"limit\": 20\n        }\n    },\n    \"data\": [\n        {\n            \"id\": 115,\n            \"name\": \"Goswamee Dwivedi\",\n            \"email\": \"goswamee_dwivedi@bartell.net\",\n            \"gender\": \"Female\",\n            \"status\": \"Active\",\n            \"created_at\": \"2021-07-02T03:50:05.179+05:30\",\n            \"updated_at\": \"2021-07-02T03:50:05.179+05:30\"\n        },\n        {\n            \"id\": 116,\n            \"name\": \"Divya Patil\",\n            \"email\": \"patil_divya@wintheiser-hansen.net\",\n            \"gender\": \"Male\",\n            \"status\": \"Inactive\",\n            \"created_at\": \"2021-07-02T03:50:05.198+05:30\",\n            \"updated_at\": \"2021-07-02T03:50:05.198+05:30\"\n        },\n        {\n            \"id\": 117,\n            \"name\": \"Aditeya Mehra\",\n            \"email\": \"aditeya_mehra@dicki-hagenes.net\",\n            \"gender\": \"Male\",\n            \"status\": \"Active\",\n            \"created_at\": \"2021-07-02T03:50:05.212+05:30\",\n            \"updated_at\": \"2021-07-02T03:50:05.212+05:30\"\n        },\n        {\n            \"id\": 118,\n            \"name\": \"Kailash Iyengar\",\n            \"email\": \"kailash_iyengar@fadel.net\",\n            \"gender\": \"Male\",\n            \"status\": \"Inactive\",\n            \"created_at\": \"2021-07-02T03:50:05.230+05:30\",\n            \"updated_at\": \"2021-07-02T03:50:05.230+05:30\"\n        },\n        {\n            \"id\": 119,\n            \"name\": \"Mrs. Gautami Kaul\",\n            \"email\": \"kaul_mrs_gautami@trantow.name\",\n            \"gender\": \"Female\",\n            \"status\": \"Active\",\n            \"created_at\": \"2021-07-02T03:50:05.238+05:30\",\n            \"updated_at\": \"2021-07-02T03:50:05.238+05:30\"\n        },\n        {\n            \"id\": 120,\n            \"name\": \"Geeta Prajapat\",\n            \"email\": \"prajapat_geeta@mertz.org\",\n            \"gender\": \"Female\",\n            \"status\": \"Inactive\",\n            \"created_at\": \"2021-07-02T03:50:05.244+05:30\",\n            \"updated_at\": \"2021-07-02T03:50:05.244+05:30\"\n        },\n        {\n            \"id\": 122,\n            \"name\": \"Anand Swarup Trivedi\",\n            \"email\": \"swarup_trivedi_anand@franecki-lindgren.org\",\n            \"gender\": \"Female\",\n            \"status\": \"Active\",\n            \"created_at\": \"2021-07-02T03:50:05.278+05:30\",\n            \"updated_at\": \"2021-07-02T03:50:05.278+05:30\"\n        },\n        {\n            \"id\": 124,\n            \"name\": \"Brahmanandam Tagore\",\n            \"email\": \"brahmanandam_tagore@smith.co\",\n            \"gender\": \"Male\",\n            \"status\": \"Inactive\",\n            \"created_at\": \"2021-07-02T03:50:05.309+05:30\",\n            \"updated_at\": \"2021-07-02T03:50:05.309+05:30\"\n        },\n        {\n            \"id\": 125,\n            \"name\": \"Sarisha Bandopadhyay PhD\",\n            \"email\": \"sarisha_phd_bandopadhyay@grady-bruen.net\",\n            \"gender\": \"Female\",\n            \"status\": \"Inactive\",\n            \"created_at\": \"2021-07-02T03:50:05.321+05:30\",\n            \"updated_at\": \"2021-07-02T03:50:05.321+05:30\"\n        },\n        {\n            \"id\": 126,\n            \"name\": \"Prof. Kalyani Sethi\",\n            \"email\": \"sethi_kalyani_prof@purdy-bosco.biz\",\n            \"gender\": \"Male\",\n            \"status\": \"Active\",\n            \"created_at\": \"2021-07-02T03:50:05.340+05:30\",\n            \"updated_at\": \"2021-07-02T03:50:05.340+05:30\"\n        },\n        {\n            \"id\": 127,\n            \"name\": \"Uttam Sinha\",\n            \"email\": \"uttam_sinha@schiller-stiedemann.com\",\n            \"gender\": \"Female\",\n            \"status\": \"Active\",\n            \"created_at\": \"2021-07-02T03:50:05.356+05:30\",\n            \"updated_at\": \"2021-07-02T03:50:05.356+05:30\"\n        },\n        {\n            \"id\": 128,\n            \"name\": \"Amaranaath Pothuvaal Jr.\",\n            \"email\": \"amaranaath_jr_pothuvaal@heller.co\",\n            \"gender\": \"Female\",\n            \"status\": \"Inactive\",\n            \"created_at\": \"2021-07-02T03:50:05.374+05:30\",\n            \"updated_at\": \"2021-07-02T03:50:05.374+05:30\"\n        },\n        {\n            \"id\": 129,\n            \"name\": \"Brahmaanand Asan\",\n            \"email\": \"asan_brahmaanand@wolff.io\",\n            \"gender\": \"Male\",\n            \"status\": \"Inactive\",\n            \"created_at\": \"2021-07-02T03:50:05.400+05:30\",\n            \"updated_at\": \"2021-07-02T03:50:05.400+05:30\"\n        },\n        {\n            \"id\": 130,\n            \"name\": \"Dhyaneshwar Marar\",\n            \"email\": \"marar_dhyaneshwar@auer.io\",\n            \"gender\": \"Male\",\n            \"status\": \"Inactive\",\n            \"created_at\": \"2021-07-02T03:50:05.416+05:30\",\n            \"updated_at\": \"2021-07-02T03:50:05.416+05:30\"\n        },\n        {\n            \"id\": 131,\n            \"name\": \"Niro Bhattathiri\",\n            \"email\": \"bhattathiri_niro@will.com\",\n            \"gender\": \"Male\",\n            \"status\": \"Inactive\",\n            \"created_at\": \"2021-07-02T03:50:05.434+05:30\",\n            \"updated_at\": \"2021-07-02T03:50:05.434+05:30\"\n        },\n        {\n            \"id\": 132,\n            \"name\": \"Digambar Dutta\",\n            \"email\": \"dutta_digambar@goldner-murazik.net\",\n            \"gender\": \"Male\",\n            \"status\": \"Inactive\",\n            \"created_at\": \"2021-07-02T03:50:05.437+05:30\",\n            \"updated_at\": \"2021-07-02T03:50:05.437+05:30\"\n        },\n        {\n            \"id\": 133,\n            \"name\": \"Chandani Iyengar\",\n            \"email\": \"chandani_iyengar@steuber-ward.net\",\n            \"gender\": \"Female\",\n            \"status\": \"Active\",\n            \"created_at\": \"2021-07-02T03:50:05.445+05:30\",\n            \"updated_at\": \"2021-07-02T03:50:05.445+05:30\"\n        },\n        {\n            \"id\": 134,\n            \"name\": \"Digambar Verma\",\n            \"email\": \"verma_digambar@douglas-maggio.net\",\n            \"gender\": \"Female\",\n            \"status\": \"Active\",\n            \"created_at\": \"2021-07-02T03:50:05.472+05:30\",\n            \"updated_at\": \"2021-07-02T03:50:05.472+05:30\"\n        },\n        {\n            \"id\": 135,\n            \"name\": \"The Hon. Bhishma Gill\",\n            \"email\": \"hon_the_bhishma_gill@murray-rath.info\",\n            \"gender\": \"Female\",\n            \"status\": \"Active\",\n            \"created_at\": \"2021-07-02T03:50:05.494+05:30\",\n            \"updated_at\": \"2021-07-02T03:50:05.494+05:30\"\n        },\n        {\n            \"id\": 136,\n            \"name\": \"Miss Gautam Bhattathiri\",\n            \"email\": \"miss_bhattathiri_gautam@pagac-shields.io\",\n            \"gender\": \"Female\",\n            \"status\": \"Active\",\n            \"created_at\": \"2021-07-02T03:50:05.520+05:30\",\n            \"updated_at\": \"2021-07-02T03:50:05.520+05:30\"\n        }\n    ]\n}","statusCode":200},"precondition":false,"level":3}]}]}]},{"number":6,"description":"Then he should validate that the status coide is 200","duration":3,"startTime":"2021-07-02T10:01:10.425-05:00[America/Bogota]","result":"SUCCESS","precondition":false,"level":0}],"userStory":{"id":"post-with-authentification","storyName":"Post with authentification","path":"file:///C:/Users/jonathan.castro/OneDrive%20-%20SOPHOS%20SOLUTIONS%20SAS/SEMILLERO%20DE%20AUTOMATIZACIÓN/9.%20Screen-Play/ProyectoBank/carga/SemilleroScreenPlayPractica/ProyectoBank/lib/src/test/resources/com/sophossolutions/features/post_with_auth.feature","narrative":"  I want as a an automator\n  want to Automate a POST api\n  To validate the result is successful","type":"feature"},"featureTag":{"name":"Features/Post with authentification","type":"feature","displayName":"Features/Post with authentification"},"title":"Title of your scenario","startTime":"2021-07-02T10:01:03.307-05:00[America/Bogota]","duration":7124,"projectKey":"","isManualTestingUpToDate":false,"manual":false,"testSource":"Cucumber","actors":[{"name":"Jonathan","can":["browse the web","call an API at https://gorest.co.in/"]}],"result":"SUCCESS"}